,Avg Weighted Return LG,SD Returns LG,Amount Invested LG,Loans invested LG,Avg Weighted Return RFC,SD Returns RFC,Amount Invested RFC,Loans invested RFC,Avg Weighted Return KNN,SD Returns KNN,Amount Invested KNN,Loans invested KNN
0.1,0.03437575468467313,0.04748863015788823,327716950.0,24364,0.03465874650645577,0.04903473159929686,346109275.0,25450,0.03193368151615954,0.06970501166708734,591640500.0,45394
0.15,0.03361663664602736,0.05813854134507131,622089100.0,48573,0.034202821185986595,0.05710776995183494,567845400.0,43217,0.03193368151615954,0.06970501166708734,591640500.0,45394
0.2,0.032011228846099214,0.06670428446883767,878378150.0,70124,0.03297661064924703,0.06422707064631823,778590425.0,60617,0.029321822640953107,0.07723215818808936,1054357275.0,82038
0.25,0.03025991852673579,0.0727126921958932,1063103250.0,84904,0.03138459333034179,0.07022717294925435,965614650.0,76197,0.029321822640953107,0.07723215818808936,1054357275.0,82038
0.3,0.02887998077472781,0.07668005530200547,1176437475.0,93540,0.03008932570859647,0.07476414296189993,1115455925.0,88198,0.029321822640953107,0.07723215818808936,1054357275.0,82038
0.35,0.027940308362272563,0.07915015930553529,1245311825.0,98638,0.028741424869775396,0.07841937425171132,1223405675.0,96594,0.029321822640953107,0.07723215818808936,1054357275.0,82038
0.4,0.027549952904467646,0.0807220194351695,1289850850.0,101823,0.027774475333128382,0.08082768007154083,1291610400.0,101674,0.027529300496665157,0.0813165350935881,1270609775.0,99460
0.45,0.02716506164708421,0.08181537047010128,1317766950.0,103769,0.02702811287974961,0.08235566459011692,1328300775.0,104360,0.027529300496665157,0.0813165350935881,1270609775.0,99460
0.5,0.026821650393446764,0.08263335562090741,1335680050.0,104970,0.026561644949344845,0.08320569922028007,1347587025.0,105675,0.027529300496665157,0.0813165350935881,1270609775.0,99460
