,LR,GBR,LG,RFC,KNN
5000,"(0.034, 0.054)","(0.043, 0.067)","(0.033, 0.035)","(0.031, 0.044)","(-0.145, 0.075)"
10000,"(0.034, 0.055)","(0.04, 0.063)","(0.034, 0.038)","(0.031, 0.047)","(-0.06, 0.1)"
20000,"(0.035, 0.056)","(0.038, 0.062)","(0.034, 0.044)","(0.032, 0.049)","(-0.01, 0.087)"
30000,"(0.034, 0.059)","(0.037, 0.061)","(0.033, 0.051)","(0.032, 0.054)","(0.011, 0.077)"
40000,"(0.034, 0.061)","(0.036, 0.062)","(0.033, 0.055)","(0.032, 0.059)","(0.024, 0.071)"
50000,"(0.033, 0.064)","(0.035, 0.065)","(0.033, 0.059)","(0.033, 0.06)","(0.013, 0.091)"
60000,"(0.033, 0.067)","(0.034, 0.067)","(0.032, 0.063)","(0.032, 0.064)","(0.014, 0.085)"
70000,"(0.032, 0.07)","(0.033, 0.069)","(0.032, 0.067)","(0.031, 0.068)","(0.02, 0.08)"
80000,"(0.031, 0.073)","(0.032, 0.072)","(0.031, 0.071)","(0.03, 0.072)","(0.027, 0.077)"
90000,"(0.03, 0.076)","(0.031, 0.076)","(0.029, 0.075)","(0.03, 0.076)","(0.023, 0.083)"
100000,"(0.029, 0.08)","(0.029, 0.08)","(0.028, 0.08)","(0.028, 0.08)","(0.027, 0.083)"
